{
    "name": "Mailtrap",
    "alias": "mailtrap",
    "description": "",
    "keywords": [],
    "active": 0,
    "order": 0,
    "providers": [
        "Modules\\Mailtrap\\Providers\\MailtrapServiceProvider"
    ],
    "aliases": [],
    "files": [
        "start.php"
    ]
}