{
    "name": "Google Analytics",
    "alias": "googleanalytics",
    "description": "Google Analytics Statistics Module",
    "keywords": ["admin"],
    "active": 0,
    "order": 0,
    "providers": [
        "Modules\\GoogleAnalytics\\Providers\\GoogleAnalyticsServiceProvider"
    ],
    "aliases": [],
    "files": [
        "start.php"
    ]
}