{
    "name": "Google Drive",
    "alias": "googledrive",
    "description": "Google Drive Module",
    "keywords": ["admin","front"],
    "active": 0,
    "order": 0,
    "providers": [
        "Modules\\GoogleDrive\\Providers\\GoogleDriveServiceProvider"
    ],
    "aliases": [],
    "files": [
        "start.php"
    ]
}