{
    "name": "Akismet",
    "alias": "akismet",
    "description": "Akismet Module",
    "keywords": [
        "admin",
        "front"
    ],
    "active": 0,
    "order": 0,
    "providers": [
        "Modules\\Akismet\\Providers\\AkismetServiceProvider"
    ],
    "aliases": [],
    "files": [
        "start.php"
    ]
}