{
    "name": "Widgets",
    "alias": "widgets",
    "description": "",
    "keywords": [],
    "active": 0,
    "order": 0,
    "providers": [
        "Modules\\Widgets\\Providers\\WidgetsServiceProvider"
    ],
    "aliases": [],
    "files": [
        "start.php"
    ]
}